^C:\ENTI\2\INFORMATICA GRAFICA\2\AA1\GLFRAMEWORK_STARTHERE\X64\DEBUG\INT\IMGUI.OBJ|C:\ENTI\2\INFORMATICA GRAFICA\2\AA1\GLFRAMEWORK_STARTHERE\X64\DEBUG\INT\IMGUI_DEMO.OBJ|C:\ENTI\2\INFORMATICA GRAFICA\2\AA1\GLFRAMEWORK_STARTHERE\X64\DEBUG\INT\IMGUI_DRAW.OBJ|C:\ENTI\2\INFORMATICA GRAFICA\2\AA1\GLFRAMEWORK_STARTHERE\X64\DEBUG\INT\IMGUI_IMPL_SDL_GL3.OBJ|C:\ENTI\2\INFORMATICA GRAFICA\2\AA1\GLFRAMEWORK_STARTHERE\X64\DEBUG\INT\MAIN.OBJ|C:\ENTI\2\INFORMATICA GRAFICA\2\AA1\GLFRAMEWORK_STARTHERE\X64\DEBUG\INT\MY_RENDER_CODE.OBJ|C:\ENTI\2\INFORMATICA GRAFICA\2\AA1\GLFRAMEWORK_STARTHERE\X64\DEBUG\INT\PHYSICS.OBJ|C:\ENTI\2\INFORMATICA GRAFICA\2\AA1\GLFRAMEWORK_STARTHERE\X64\DEBUG\INT\RENDER.OBJ|C:\ENTI\2\INFORMATICA GRAFICA\2\AA1\GLFRAMEWORK_STARTHERE\X64\DEBUG\INT\RENDER_PRIMS.OBJ
C:\ENTI\2\INFORMATICA GRAFICA\2\AA1\GLFRAMEWORK_STARTHERE\X64\DEBUG\GL_FRAMEWORK.EXE
C:\ENTI\2\INFORMATICA GRAFICA\2\AA1\GLFRAMEWORK_STARTHERE\X64\DEBUG\GL_FRAMEWORK.ILK
C:\ENTI\2\INFORMATICA GRAFICA\2\AA1\GLFRAMEWORK_STARTHERE\X64\DEBUG\GL_FRAMEWORK.PDB
